module gitlab.com/ditdot/csgo-rcon-ws

go 1.21.1

require (
	github.com/gofiber/contrib/websocket v1.2.2
	github.com/gofiber/fiber/v2 v2.49.2
	github.com/gorcon/rcon v1.3.4
)

require (
	github.com/andybalholm/brotli v1.0.5 // indirect
	github.com/fasthttp/websocket v1.5.4 // indirect
	github.com/google/uuid v1.3.1 // indirect
	github.com/klauspost/compress v1.17.0 // indirect
	github.com/mattn/go-colorable v0.1.13 // indirect
	github.com/mattn/go-isatty v0.0.19 // indirect
	github.com/mattn/go-runewidth v0.0.15 // indirect
	github.com/rivo/uniseg v0.4.4 // indirect
	github.com/savsgio/gotils v0.0.0-20230208104028-c358bd845dee // indirect
	github.com/valyala/bytebufferpool v1.0.0 // indirect
	github.com/valyala/fasthttp v1.50.0 // indirect
	github.com/valyala/tcplisten v1.0.0 // indirect
	golang.org/x/sys v0.12.0 // indirect
)
